What's the greatest season by an NFL quarterback ever? - Nathan Hawkins A Github Site
…
eliteness %>%
group_by(Player, Year) %>%
  summarise(
    Passingyards = sum(`Passingyards`),
    Passattempts = sum(`Passattempts`),
    TD = sum(`TD`),
    Teamwins=sum(`Teamwins`),
    Int = sum(`Int`),
    Passcompletions=sum(`Passcompletions`),
    Passerrating = sum(`Passerrating`)
    ) 

## `summarise()` has grouped output by 'Player'. You can override using the `.groups` argument.

## # A tibble: 276 × 9
## # Groups:   Player [99]
##    Player         Year Passingyards Passattempts    TD Teamwins   Int Passcompletions
##    <chr>         <dbl>        <dbl>        <dbl> <dbl>    <dbl> <dbl>           <dbl>
##  1 Aaron Brooks   2001         3832          558    26        7    22             312
##  2 Aaron Brooks   2002         3572          528    27        9    15             283
##  3 Aaron Rodgers  2008         4038          536    28        6    13             341
##  4 Aaron Rodgers  2009         4434          541    30       11     7             350
##  5 Aaron Rodgers  2010         3922          475    28       10    11             312
##  6 Aaron Rodgers  2011         4643          502    45       15     6             343
##  7 Aaron Rodgers  2012         4295          552    39       11     8             371
##  8 Aaron Rodgers  2014         4381          520    38       12     5             341
##  9 Aaron Rodgers  2015         3821          572    31       10     8             347
## 10 Aaron Rodgers  2016         4428          610    40       10     7             401
## # … with 266 more rows, and 1 more variable: Passerrating <dbl>
…
